simulator/fpu_test/verilog/fadd/result.txt
VCD info: dumpfile test.vcd opened for output.
00000111100000000000000000000000 10000001111111111111111111111111 00000111011111111110000000000000
10000000000000110010101000000000 11010101000010100111001010101010 11010101000010100111001010101010
10010001010110001010000000100010 10000011100001101011000000000111 10010001010110001010000000100010
11011001010000101111110010110010 01011101000111111011010110111010 01011101000111101111001010111101
11100001101000000101011011000011 00100111010111111100111101001110 11100001101000000101011011000011
00110001110101110111001101100011 01001010111111110000101110010101 01001010111111110000101110010101
00001011011110101001111100010110 00000111101100001001010100001111 00001011011111000000000001000000
10110011100111011001011001100111 01101010010001110001001111010100 01101010010001110001001111010100
11000110110101100110001010001101 01111100110010000000001111111001 01111100110010000000001111111001
00010100101000010011010100101001 11100111110001100010010011001111 11100111110001100010010011001111
11001011100111110100111010010111 01110010000110101101000111100100 01110010000110101101000111100100
10001010111010001101101000010101 11100111110101100101111011001111 11100111110101100101111011001111
11100101011010011100111011001010 11100010111111110111110011000101 11100101011100011100101010110000
00111011000000011101001101110110 00101000011110011001101101010000 00111011000000011101001101110110
00101111110111110001000101011111 10111001001010100100001001110010 10111001001010100100001001010110
10101101010011000010100001011010 11001011001101010111100010010110 11001011001101010111100010010110
11100111111010010000000011001111 10001000111010010001111000010001 11100111111010010000000011001111
10010110000001101010101000101100 00100010101011110101001101000101 00100010101011110101001101000101
11111101100111100100011011111011 01100111000111111100110111001110 11111101100111100100011011111011
11111100000110101110001011111000 00100000000010000100001101000000 11111100000110101110001011111000
01010010111011100101010110100101 11010101000000111100011010101010 11010100111110001010011111111010
10001010101010010001111000010101 10111011111110010010011001110111 10111011111110010010011001110111
01010011000011010101000110100110 01111101100110000100110111111011 01111101100110000100110111111011
10011001010101000110011000110010 01110111101011101001101111101111 01110111101011101001101111101111
01001110101000000010101110011101 01000000111010100101011110000001 01001110101000000010101110011101
00110111010011101000110101101110 11010001011001001111110010100010 11010001011001001111110010100010
11001000101010001000110010010001 11001001000011001010001010010010 11001001011000001110100011011010
01000101001001000001011110001010 01001000110001000110001110010001 01001000110001011010101111000000
10100000001100001110010001000000 10100100110100111010111001001001 10100100110101000000011010111011
01101001010010000101010111010010 01001110111111001010111110011101 01101001010010000101010111010010
11000010101110000101110010000101 10100100010100011011001001001000 11000010101110000101110010000101
01101011011000010101001111010110 00111110101000010111101101111101 01101011011000010101001111010110
11010011010111101110000010100110 11110011000100101010101011100110 11110011000100101010101011100110
01000010010100111101101110000100 00110111010001100010001101101110 01000010010100111101101110000111
11110010110100010001111011100101 00101100000110000101011101011000 11110010110100010001111011100101
11100001000011110111100011000010 01111000110110011100000111110001 01111000110110011100000111110001
10010011111101001000000000100111 01100011100101100011000111000111 01100011100101100011000111000111
10001110000110100111100000011100 10011010110000110011001000110101 10011010110000110011001000110101
00001001010100110011001100010010 11100010011011010111001011000100 11100010011011010111001011000100
01010001110111011110100110100011 10111010101111010001010001110101 01010001110111011110100110100011
00110111010010000010001101101110 00001111011010010001110100011110 00110111010010000010001101101110
11000111101100011001001010001111 01111111011100011100001111111110 01111111011100011100001111111110
10010110111010101111101000101101 11000010001110011110011010000100 11000010001110011110011010000100
01011101101010000000010110111011 10001010110101110101100000010101 01011101101010000000010110111011
01110101101111000010100111101011 11111100001100100100111011111000 11111100001100100100100100010111
11001111000110101000100010011110 10111000010010111011001001110000 11001111000110101000100010011110
00011110000100001101011100111100 11000010110000101001000010000101 11000010110000101001000010000101
01100101111101010010101111001011 01000010011100000110110110000100 01100101111101010010101111001011
01010100001111101111000110101000 10010111101101001010100000101111 01010100001111101111000110101000
01001110110000101011100110011101 10101100110001101110000001011001 01001110110000101011100110011101
01010100100010010010010110101001 11001011001010000101001010010110 01010100100010010010010110010100
00001011011110001011110100010110 00001101000011000010111100011010 00001101000110111011101011101011
00111101110010101101110101111011 10100011010011110000100001000110 00111101110010101101110101111011
11010001000000111000010010100010 00010000010101010010111100100000 11010001000000111000010010100010
10010100111001000100010000101001 00010101111010000000101100101011 00010101101011101111101000100001
01011011100100100001101110110111 11010111111010100111111010101111 01011011100100010011000100111000
01001100111001100100101110011001 10001111011111000101000000011110 01001100111001100100101110011001
10000101101000100100101000001011 10001001111001000111101000010011 10001001111001010001110001011101
01111111111111101001100111111111 00000100010110101001100100001000 01111111100000000000000000000000
10101101110011001010001001011011 00110001100001110011111101100011 00110001100001100111001011000001
11000101001000111001110010001010 01000111010100110101111110001110 01000111010010010010010111000101
10110111010100000110110001101110 01001011010111101010011110010110 01001011010111101010011110010110
11001110100000001000000010011101 01100010001101001101111111000100 01100010001101001101111111000100
00110001010111111011010101100010 00011001000110100100111100110010 00110001010111111011010101100010
10111100101000010011000001111001 01101100000001110001010111011000 01101100000001110001010111011000
11110001001010110100100011100010 10011001001010011001000000110010 11110001001010110100100011100010
01010010010111100101101110100100 00011001000001111011110100110010 01010010010111100101101110100100
00101010101011101011001101010101 10111110000101111000110001111100 10111110000101111000110001111100
11110101100010010110100011101011 00000000011001100101001100000000 11110101100010010110100011101011
11010100001111000100000010101000 01000001101001110001101110000011 11010100001111000100000010101000
00101000010110001000100101010000 01010011110000000001000110100111 01010011110000000001000110100111
11100000110010001111110011000001 00101111101011101101100101011111 11100000110010001111110011000001
11100111100100101010001011001111 10000100010110111111010000001000 11100111100100101010001011001111
10011100111110001011001000111001 00000100101101010010001100001001 10011100111110001011001000111001
00011001011110110110100100110010 00010010001001101011110100100100 00011001011110110110101111001101
00111010111010011110111101110101 11111100010011000001010011111000 11111100010011000001010011111000
11111001011111110100000011110010 10000000011011101110000000000000 11111001011111110100000011110010
01011000110000011111111110110001 11101011001011011000101011010110 11101011001011011000101011010110
00101100100111110101101101011001 00101100011000001001111101011000 00101101000001111101010110000010
00001101111110001110111100011011 11000001000101110010000010000010 11000001000101110010000010000010
11101010100111011010000011010101 10000001010000011111001000000010 11101010100111011010000011010101
11001011011001011000100010010110 10001110011001100011000000011100 11001011011001011000100010010110
01100111111010001100000111001111 11000110011011101001011010001100 01100111111010001100000111001111
00011010000010010101100100110100 10101001011100111101101001010010 10101001011100111101101001010010
01101100010010000010010111011000 10000011000101000000101000000110 01101100010010000010010111011000
00000100100111001010101100001001 01001111101100001111011110011111 01001111101100001111011110011111
11000010010001111111101010000100 00110011101011011000100101100111 11000010010001111111101010000100
10110111110110101000110001101111 11011110100000100010001010111101 11011110100000100010001010111101
11101011011001010010110011010110 11001101010000000000101010011010 11101011011001010010110011010110
10100101100011001100100001001011 01111111110110111011101111111111 01111111100000000000000000000000
01000100111110010110011110001001 01001010010101100100111110010100 01001010010101100110111011000001
00110110010101111110110101101100 11100110100111011101101011001101 11100110100111011101101011001101
10001001111001110001010000010011 00111101101111001101000101111011 00111101101111001101000101111011
11010110010001110100001010101100 01110110101100000101111111101101 01110110101100000101111111101101
01011101000001010110010110111010 00100110111111011100110101001101 01011101000001010110010110111010
11101000000110001101100011010000 11110100110111101110001011101001 11110100110111101110001011101001
01001000010011000100001110010000 00000100100111010011111100001001 01001000010011000100001110010000
11101011010010010111011011010110 10011010011101001100000000110100 11101011010010010111011011010110
01011100110000000101011110111001 01100000000101001110001111000000 01100000000101100110010001101111
11100000111000001010110011000001 00101000100110010001100101010001 11100000111000001010110011000001
01011111000111110001000110111110 11001111100100000011001010011111 01011111000111110001000110111110
10111010111111001100011001110101 01010111011010101100001110101110 01010111011010101100001110101110
00101101010010101001110101011010 10101001011010000110111001010010 00101101010010011011010011101100
01100011000111101100111111000110 10111100110111000101110001111001 01100011000111101100111111000110
11001000011101011110010010010000 01100101011000001000111111001010 01100101011000001000111111001010
10100011001101101001000001000110 00000111010100000100001100001110 10100011001101101001000001000110
00110000000100001001010101100000 11100111101000010101001011001111 11100111101000010101001011001111
11111101011011101001101011111010 00100111111101001001000101001111 11111101011011101001101011111010
11111001011100110001101011110010 10110001011101010011001001100010 11111001011100110001101011110010
00111110101110000011011101111101 11001000110111110010001010010001 11001000110111110010001010000101
01010000010010101001111110100000 10110011110001000110110001100111 01010000010010101001111110100000
01011000000101110111000110110000 00101010111010011001010101010101 01011000000101110111000110110000
11001011110001010001001010010111 00111111010100001111110101111110 11001011110001010001001010010111
11001010101011110001011010010101 01000111010011010100000110001110 11001010101011010111110000010010
01000100011111010001111110001000 01001110101100101001110110011101 01001110101100101001110110100101
10110010100011001011001001100101 11010000111111110100011010100001 11010000111111110100011010100001
10010111001001100010111000101110 00100110000100101100110101001100 00100110000100101100110101001100
00111100001101001001001101111000 01110001110011000111111111100011 01110001110011000111111111100011
11111111111110000110111011111111 00000100101010001100010100001001 11111111100000000000000000000000
00010000111011011100000100100001 01011111001101011000011110111110 01011111001101011000011110111110
01111010110111001100110111110101 01100011111101011000010111000111 01111010110111001100110111110101
00000101110011100000100100001011 00100011000010101011101101000110 00100011000010101011101101000110
01010100010110001111001110101000 00000000101111111100010100000001 01010100010110001111001110101000
00011001100001011111100100110011 00110011110010000011011101100111 00110011110010000011011101100111
11010111001110110100111010101110 10101001110100000000001001010011 11010111001110110100111010101110
10001100111011001101101000011001 10111000101100011101011001110001 10111000101100011101011001110001
11000011000001110000101010000110 10010000011011000111101000100000 11000011000001110000101010000110
10100010010011001011101001000100 10010101101011110011011000101011 10100010010011001011101001000100
11110111001000000001001011101110 10010110100101010010100000101101 11110111001000000001001011101110
01001111011011100110011110011110 10011010111001111011000000110101 01001111011011100110011110011110
01111110101101110001010111111101 11010110111111111100100010101101 01111110101101110001010111111101
11101110011001010110100011011100 01110100000111100110010111101000 01110100000111100101011110010001
11101001011101010111101011010010 01100010110100111101010111000101 11101001011101010111010000110011
10111001000111000000110001110010 10110011110011100010101001100111 10111001000111000010011000110111
10011100111010010111000000111001 11110001001001101000110011100010 11110001001001101000110011100010
10011011100111110110000000110111 00010110000001011010000100101100 10011011100111110100111110000011
10001010101100011110010000010101 11111100001101101110100011111000 11111100001101101110100011111000
10101001001010110011000001010010 11010111000000110010001010101110 11010111000000110010001010101110
01110111011010101000000111101110 10001000011010011010011000010000 01110111011010101000000111101110
00111111111101100000010101111111 10111001100100001100110001110011 00111111111101011111110001110010
10111110010101111011001001111100 10010001000001010100010000100010 10111110010101111011001001111100
10100111101111010010110001001111 00011001001000000111101100110010 10100111101111010010110001001111
00111101110100101010010101111011 11010110101011011111101010101101 11010110101011011111101010101101
10110111000100001011010001101110 00100011101001111100100101000111 10110111000100001011010001101110
11011000011101010100001010110000 10001011101000011100010000010111 11011000011101010100001010110000
11001011010111110110010010010110 00010111001111000001000100101110 11001011010111110110010010010110
10110111000001100011101001101110 00011001101101000110001100110011 10110111000001100011101001101110
00011111110000101100111100111111 00011111011011100111001100111110 00100000000111010000010001101111
00110111001001001111011101101110 11111110000010110100111011111100 11111110000010110100111011111100
01001110100010110011100110011101 00101110011001111100011101011100 01001110100010110011100110011101
00110010101101011010001101100101 01110110100110011100001111101101 01110110100110011100001111101101
10001001100010111011001000010011 11101101110001001010101011011011 11101101110001001010101011011011
00001100000011010010110100011000 01111101010111001011111111111010 01111101010111001011111111111010
11010101001001100000011010101010 10100011001100010111101001000110 11010101001001100000011010101010
10101010110111010100000001010101 01001101010101101111101110011010 01001101010101101111101110011010
01010010000101101100001110100100 10100100110001100101001001001001 01010010000101101100001110100100
01010101111000000100011110101011 01101101010011001111010111011010 01101101010011001111010111011010
01100010000000010011000111000100 10111001001000110000111001110010 01100010000000010011000111000100
00010101010001010110111100101010 11111100010000001110100011111000 11111100010000001110100011111000
00110010101110110101110101100101 01111111010010110100100111111110 01111111010010110100100111111110
00001001110111001010001100010011 10111011101011101101001001110111 10111011101011101101001001110111
11111100010110100001010011111000 10111010010000100110000001110100 11111100010110100001010011111000
11100101000000101001000011001010 00010011100010000110111100100111 11100101000000101001000011001010
11111101111111001110001011111011 00011100011001110110111100111000 11111101111111001110001011111011
01101101010011001010001111011010 00001011111100010011011100010111 01101101010011001010001111011010
00000101010110100001010100001010 11101110100100010101001011011101 11101110100100010101001011011101
10111011111101010000011001110111 11111000101110100110101011110001 11111000101110100110101011110001
00001101000010101011010100011010 10101110111010101010010001011101 10101110111010101010010001011101
10011111000001101010010000111110 01010010100111110000001110100101 01010010100111110000001110100101
00111101100101101000111101111011 10000011100011011100001000000111 00111101100101101000111101111011
01001100010010010010111110011000 11111010001111111011110011110100 11111010001111111011110011110100
01011101010000000011000110111010 00011100111000001100100100111001 01011101010000000011000110111010
01010000111011010000101110100001 11100000110111110001010011000001 11100000110111110001010011000001
01111010100100001110010111110101 01100011101100011001001111000111 01111010100100001110010111110101
01101001111101110110100111010011 11010010110111010100011010100101 01101001111101110110100111010011
01011101101001001011011110111011 00001111000100011011101100011110 01011101101001001011011110111011
10110001011011100011010001100010 11011111111101000100111010111111 11011111111101000100111010111111
00001100001101100111010100011000 11111101111100101010000011111011 11111101111100101010000011111011
01001100010001000001011110011000 10011101001100111110100000111010 01001100010001000001011110011000
01101100011010111010100111011000 11110000100000010101110011100001 11110000100000001110011100001100
10000101000001000111111000001010 00111100101111011001000101111001 00111100101111011001000101111001
11010010011000001001111010100100 11111101010000101100111011111010 11111101010000101100111011111010
11111111001111111001100011111110 00110111010000001000000101101110 11111111001111111001100011111110
00000100011101000110010100001000 11011101111011111000111010111011 11011101111011111000111010111011
01101111101101100100111111011111 00000011001101011011100100000110 01101111101101100100111111011111
00000010010101001100011100000100 11110000000011111111101011100000 11110000000011111111101011100000
00000101010001100100110100001010 00010101110110111111000100101011 00010101110110111111000100101011
10011010110010100100110000110101 10000101010110000010111000001010 10011010110010100100110000110101
01101110100101011111111111011101 00101001111100111010011101010011 01101110100101011111111111011101
10011100010001000100011000111000 11011111110001000000011010111111 11011111110001000000011010111111
00101000100000001001001101010001 10001000001110110001011000010000 00101000100000001001001101010001
00101100001001001100000101011000 11110101011100110001110011101010 11110101011100110001110011101010
10000001010000011111010000000010 11001101101010100011110010011011 11001101101010100011110010011011
10010000110011001000001000100001 11011000010001001101000010110000 11011000010001001101000010110000
01111100011000101100110111111000 01101011011011101101001111010110 01111100011000101100110111111000
01111010011001110001111111110100 01011101001101000011101110111010 01111010011001110001111111110100
10000011011001001000110000000110 11011100101010000101100010111001 11011100101010000101100010111001
10010110011101101101101000101100 01011111011101000011101110111110 01011111011101000011101110111110
10001111001011010101101000011110 01001101111001000000100110011011 01001101111001000000100110011011
11111010001000001100011011110100 10111011010010110110100001110110 11111010001000001100011011110100
00110110001101000010011101101100 00110010010110001101110101100100 00110110001101010000000001001001
10101111001110001010110001011110 11011100101100000010001010111001 11011100101100000010001010111001
11001011011011001001101010010110 00000010111000111001001100000101 11001011011011001001101010010110
01110000000011010001101111100000 01111101101001001000010111111011 01111101101001001000010111111011
01111001111100110010010111110011 00100010110000101010011101000101 01111001111100110010010111110011
01011101111100110101101110111011 11110000010100100110101011100000 11110000010100100110101011100000
00001001011110001110111100010010 10100110000100100101010001001100 10100110000100100101010001001100
00111110100100110111100101111101 00010000111001110110111100100001 00111110100100110111100101111101
10110111011011111110010001101110 01110110000010001001100111101100 01110110000010001001100111101100
10001011111101000100001000010111 10111011001100001111000001110110 10111011001100001111000001110110
01010000111101101011010110100001 00001110111100010010111100011101 01010000111101101011010110100001
01100011010001110100001111000110 01011111111110000000100110111111 01100011010010010011001111011001
01111001100001001100100111110011 11010011111010011001001010100111 01111001100001001100100111110011
00011110011101001100011100111100 00010110000111011001011100101100 00011110011101001100011111011010
11001010010101100100110010010100 10110100010111001111111001101000 11001010010101100100110010010100
00100100011001111101100101001000 01000011011101100011001110000110 01000011011101100011001110000110
00110110100110000010111101101101 10011111010000000111000000111110 00110110100110000010111101101101
00111100000110100100010101111000 10111001011001100011101001110010 00111100000101101010110010001110
11100000010101000001100011000000 00000000000011101010011100000000 11100000010101000001100011000000
01101110011000001001100111011100 11100001001111011100101011000010 01101110011000001001100111011100
01001010000111000111100110010100 01000001100001000001100110000011 01001010000111000111100111010110
01000010011101100001111110000100 01010100010101001011111110101000 01010100010101001011111110101000
10010001011110000111100000100010 00010010000110110000010100100100 00010001101110011100111000110111
11100001010010001110001011000010 11111011111001101011000011110111 11111011111001101011000011110111
00011110000100000000010100111100 11100110010001110110011011001100 11100110010001110110011011001100
01101011100001011011001111010111 10010100101011110000000000101001 01101011100001011011001111010111
11110001100101111100101011100011 11110100011100101111100011101000 11110100011101111011011100111111
10001110011001000001100000011100 00110010010001001100011101100100 00110010010001001100011101100100
10000100011111010011010000001000 10100110101110010011101001001101 10100110101110010011101001001101
00100011001100100110001101000110 00011110001101101110001100111100 00100011001100101001000011111111
11011011010100100110111010110110 00111110011000110110010101111100 11011011010100100110111010110110
01100101101000011001100111001011 00101110111001111110110101011101 01100101101000011001100111001011
01000000111110100110011110000001 00100101001001000111011101001010 01000000111110100110011110000001
00001100110100011000110100011001 01110010001010100100001111100100 01110010001010100100001111100100
11010001100101001100011010100011 00101000000101010010100101010000 11010001100101001100011010100011
01010011000111001100010110100110 11000111100111000000000010001111 01010011000111001100010110100101
11000010001010011111110010000100 10011000011011111111100000110000 11000010001010011111110010000100
10111000101001001001000001110001 11000110110000110000000010001101 11000110110000110000000010001101
00010001000101110011001100100010 00001110000011010010001100011100 00010001000110010110011110101110
00001100100111001111110100011001 00001100111010001110001100011001 00001101010000101111000000011001
00001011001110100101010100010110 01000111100111101010001110001111 01000111100111101010001110001111
00001001010110001101001100010010 11001110101101110000000010011101 11001110101101110000000010011101
11010001110111100001000010100011 01100100101011000011010111001001 01100100101011000011010111001001
10001111000101011001111000011110 01001001100100100111010110010011 01001001100100100111010110010011
11001101011001011101000010011010 01110101010011110101001111101010 01110101010011110101001111101010
01001001100001111010110110010011 01110000101110000001110111100001 01110000101110000001110111100001
10111000101110011100001001110001 00011011101011110011110100110111 10111000101110011100001001110001
01001100001001100000101110011000 11110010000110001001011011100100 11110010000110001001011011100100
10110001011100101100111001100010 10111011001111001110101001110110 10111011001111001110101010000101
11110001001101101000001011100010 01101110111101000011101111011101 11110001001011101110000100000011
01111000110001101010011111110001 01110001101011110001110111100011 01111000110001101010101010101101
00000111100110011010001100001111 10000100001101110010011000001000 00000111100110000011010011000011
11010001001100111011000010100010 11010101101111100100101010101011 11010101101111101010010010000011
00011011010101101011010100110110 11111110100101010011010011111101 11111110100101010011010011111101
10100100111011010001110001001001 00110111101000001011001101101111 00110111101000001011001101101111
01100100111001111100010111001001 01010110011001100000010110101100 01100100111001111100010111001001
01100001000001101101011111000010 11011111010001100101000010111110 01100000111101001110010101101100
10101011010001011010000001010110 01001111010000001111000110011110 01001111010000001111000110011110
10110001011000011000011001100010 10000100010101001101111000001000 10110001011000011000011001100010
00100100101100111101001101001001 01010111010110010001001110101110 01010111010110010001001110101110
10001001010101101001110000010010 11111011111000111101110011110111 11111011111000111101110011110111
00100010010011001010100101000100 00000010100110010100100100000101 00100010010011001010100101000100
00100101001001000100010101001010 11010111111110001000001010101111 11010111111110001000001010101111
00010010010011010010110100100100 10111101100000000011000001111011 10111101100000000011000001111011
01110000000110010110100111100000 01110100110000011101000111101001 01110100110000100001111010011110
00100101001000010010101101001010 10010011101111000010001000100111 00100101001000010010101101001010
11111011100000011011010011110111 10101111100101000111111001011111 11111011100000011011010011110111
10100001001011110011000001000010 10100110100001110011110001001101 10100110100001110101001000110011
01110010010100011001010111100100 01000011101001110000101110000111 01110010010100011001010111100100
10110001011001001000100001100010 10101110110000110101100001011101 10110001011010101010001100100101
00110101100100100011011101101011 10001000100011011011000000010001 00110101100100100011011101101011
00111010100000010011111101110101 10100110110101100001011001001101 00111010100000010011111101110101
10001101100011011000011000011011 00001110011101100110110100011100 00001110001011111010101000001110
00000011001001000010000100000110 01111000010001001101000111110000 01111000010001001101000111110000
10011011101110100010110000110111 01010100001001001111101110101000 01010100001001001111101110101000
00111010100101101011100101110101 01001001000100001010000110010010 01001001000100001010000110010010
11111001011001111001101011110010 10010010101011101101010000100101 11111001011001111001101011110010
00101010010110010101010101010100 11000100110100100110010010001001 11000100110100100110010010001001
10101111001010011111011001011110 01011010111101110011101110110101 01011010111101110011101110110101
10011110011011101111110000111100 01111101100101101011100111111011 01111101100101101011100111111011
11110001000001100011000011100010 10000000111010110010010000000001 11110001000001100011000011100010
01010000011010011000001110100000 01000000011110011111101110000000 01010000011010011000001110100000
11001011010111011111001010010110 10010000011111010101000000100000 11001011010111011111001010010110
01100001001101010110110111000010 11111010000001000100000011110100 11111010000001000100000011110100
10101100100110111010101001011001 11001000011000100011110010010000 11001000011000100011110010010000
10101101101001100000101001011011 10000110010001010110110000001100 10101101101001100000101001011011
01110111100111101000001111101111 01010110100011000010000110101101 01110111100111101000001111101111
10001001110000010110100000010011 10001000101100010001100000010001 10001001111011011010111000010111
10001010111001100110011000010101 01010010011001101111100110100100 01010010011001101111100110100100
00101110110011000101000101011101 00100111101110101010000101001111 00101110110011000101010001001000
11101000100000000000010011010001 10110000110101001000010001100001 11101000100000000000010011010001
11101000000101100100111011010000 01001000001100010001111110010000 11101000000101100100111011010000
01101010101100001100011111010101 00101101111010000011111101011011 01101010101100001100011111010101
11001010100001011010111010010101 10100100010110110111000001001000 11001010100001011010111010010101
10110001011000101101100001100010 11101000011000110110000011010000 11101000011000110110000011010000
10000010111000110111111000000101 11011010110101000011001010110101 11011010110101000011001010110101
00110100010100010010100101101000 00101010111100001110101101010101 00110100010100010010100110000110
10000110111001111000100000001101 01010001001001011100000110100010 01010001001001011100000110100010
10100101111100110110000001001011 10011111001000011001010000111110 10100101111100110110010101011000
10110101000001000101101001101010 10000110001001100011011000001100 10110101000001000101101001101010
10010011001010011110111000100110 11100110001001111101110011001100 11100110001001111101110011001100
00101110111100110011111101011101 00110000000100110111000101100000 00110000001100011101100101001100
11101011101010011111110011010111 01010011010100111111111110100110 11101011101010011111110011010111
11111011000000000100000011110110 01000010011011110000101110000100 11111011000000000100000011110110
11011111001010010111011010111110 01000100010011111111011110001000 11011111001010010111011010111110
10111000000101100010111001110000 10110111100110100101111001101111 10111000011000110101110110101000
00111011010010110000101101110110 01010011000110111000000110100110 01010011000110111000000110100110
01110000100010101001001111100001 10111010001100101000110001110100 01110000100010101001001111100001
00110110010010100010001101101100 01011101110010000001011110111011 01011101110010000001011110111011
01010111101010011011101110101111 10001010001011000110110000010100 01010111101010011011101110101111
01010010011001101110101110100100 00011111111101001111100100111111 01010010011001101110101110100100
11111110000000101011000011111100 00111001101100001001110101110011 11111110000000101011000011111100
11000110000100100101000010001100 11011010000010110001111010110100 11011010000010110001111010110100
01001000011100110100000110010000 00011101101101110111100100111011 01001000011100110100000110010000
10010100110110011111111000101001 01000010001110010100011110000100 01000010001110010100011110000100
00110101111100111111100101101011 10001110011001010001110000011100 00110101111100111111100101101011
01000101000101000110001110001010 10111011001011111110110001110110 01000101000101000110001101111111
01000000001001000010001110000000 01010011001001010110010110100110 01010011001001010110010110100110
11011110010011001010011010111100 10001100100111010100110000011001 11011110010011001010011010111100
11100010100101011100101011000101 11010110100001111110110010101101 11100010100101011100101011000110
10011100011011101011011000111000 10011001011010010110001000110010 10011100011100100101101111000001
10010100110110011011111000101001 11111101110111000000111011111011 11111101110111000000111011111011
10000011101100110100000000000111 11001111101100011110101010011111 11001111101100011110101010011111
01000011010010111000100110000110 01000000100011001110101110000001 01000011010011111111000011100010
11000001010010111010111010000010 01001110100001100110000110011101 01001110100001100110000110011101
00010010100111010111011100100101 01011011001111010101100110110110 01011011001111010101100110110110
10000100110011100010111000001001 11111101011000111111111011111010 11111101011000111111111011111010
11111010001001001001001011110100 10111010101000111111011001110101 11111010001001001001001011110100
10111110011000011010100001111100 00010001011100011100001100100010 10111110011000011010100001111100
10000000111001001010100000000001 01111010001001110010000111110100 01111010001001110010000111110100
11101101101010011100111011011011 10111100011111000110101001111000 11101101101010011100111011011011
10101001010111000100010001010010 10010010001110001111001000100100 10101001010111000100010001010010
11101101011100110000011011011010 00000001101100100110111100000011 11101101011100110000011011011010
11011000000100001011010010110000 10010010011100110100100000100100 11011000000100001011010010110000
01101000000111101000000111010000 01101100001000000000110111011000 01101100001000001010110001011010
01000000110110100000010110000001 00000011011100111011111100000110 01000000110110100000010110000001
01100000110011100010011111000001 00100010111010110100000101000101 01100000110011100010011111000001
00100110111011101111111101001101 01001100011101111010111110011000 01001100011101111010111110011000
11111101010100001010011011111010 10010111010011111100010000101110 11111101010100001010011011111010
11111011101100010010111011110111 10111000101110000011100001110001 11111011101100010010111011110111
01111100110011010110101111111001 11001000010110110001100010010000 01111100110011010110101111111001
00101000001110001110000101010000 11111000100001100011010011110001 11111000100001100011010011110001
00000111001100001010000100001110 11011000011010000111011010110000 11011000011010000111011010110000
00001101101000010010001100011011 00111010001001100100000101110100 00111010001001100100000101110100
11000001010101110011001010000010 01110000010111001101100111100000 01110000010111001101100111100000
10001000000100111011111000010000 10110110011011001011100001101100 10110110011011001011100001101100
01010001111110101100110110100011 00101100101000101111110101011001 01010001111110101100110110100011
00000000100101010100001100000001 01001101000110011011100110011010 01001101000110011011100110011010
11000011010111011101101010000110 00001111111001110101111100011111 11000011010111011101101010000110
11011001100100001111100010110011 10001100111101010001110000011001 11011001100100001111100010110011
01101101101101111000101111011011 10110111100101000011101001101111 01101101101101111000101111011011
11000010001001001110111010000100 01000011101010101000000110000111 01000011100101011110001110110110
01010110010111111100100110101100 11001110000011011000110010011100 01010110010111111100100100011110
00111100001011011110110101111000 01110001011001010011111111100010 01110001011001010011111111100010
00101111101110110011110101011111 11110110101011010001000011101101 11110110101011010001000011101101
01100001000100111000001111000010 00111100001011000111011101111000 01100001000100111000001111000010
11100101111001110101011011001011 00101111011111100100000101011110 11100101111001110101011011001011
10110001010100111111110001100010 00111110111111110000000101111101 00111110111111110000000101111101
01100100001001100100001111001000 01100100101110100101110111001001 01100101000001101011111111010110
01111010110100000110010111110101 01010000101011110111101110100001 01111010110100000110010111110101
11111111000010101110101011111110 10110010000001000101110001100100 11111111000010101110101011111110
00100001110110001000011101000011 10011110100000000100000000111101 00100001110101101000011001000010
10101111011001001111101001011110 10001101011001010000000000011010 10101111011001001111101001011110
01011000111101101111000110110001 10110110011111110110111001101100 01011000111101101111000110110001
00001001111011001110000100010011 11011000000001101100000010110000 11011000000001101100000010110000
00010011011111001110110100100110 11011101101000101110000010111011 11011101101000101110000010111011
10011111101011111100010000111111 10010000101100011101101000100001 10011111101011111100010000111111
10111110110011101000011001111101 11001101101001000011001010011011 11001101101001000011001010011011
00110011001110111001100101100110 10100100000010000100101001001000 00110011001110111001100101100110
00001110011011101000110100011100 10110110100111001011111001101101 10110110100111001011111001101101
11101110100010110000010011011101 00010110100000011100101100101101 11101110100010110000010011011101
01100110110010101000100111001101 00100000011000011010010101000000 01100110110010101000100111001101
10000101101100010111010000001011 10000100001001111101101000001000 10000101110001100110111101001100
10110010110001101100100001100101 00000111100111111011110100001111 10110010110001101100100001100101
11110010010001110001010011100100 10110010000100011011001001100100 11110010010001110001010011100100
00110000000010100101011101100000 01010010101101111010010110100101 01010010101101111010010110100101
00110011100101001101001101100111 10101101101000000101001001011011 00110011100101001100100101100010
01111110000010101111111111111100 01111010010110011011100111110100 01111110000010111101100110110110
00111111100000000101100101111111 10110101011110100111001001101010 00111111100000000101100101110111
11111011110110010100111011110111 00000001111000100001010100000011 11111011110110010100111011110111
00010000001110000001010100100000 11101000010010001001000011010000 11101000010010001001000011010000
01000000101011001001000110000001 00011011011101001001010100110110 01000000101011001001000110000001
01111010100111110011000111110101 01110101001100001110100111101010 01111010100111110100100000010010
00111011001011101101000101110110 10010011110110001101010000100111 00111011001011101101000101110110
00111001011110011001100101110010 11001010000100110111011010010100 11001010000100110111011010010100
01000011100010001101110110000111 11100010000101100010111011000100 11100010000101100010111011000100
01011001010101111111101110110010 11111011100001011111011011110111 11111011100001011111011011110111
00101100001011100011111101011000 11110110110011111100001011101101 11110110110011111100001011101101
11110001010000111100000011100010 01100010100011111110001111000101 11110001010000111100000011100010
00011101011010010100001100111010 00100111011000000110100101001110 00100111011000000110100101011101
11010100001010110001011010101000 00101100001001100111101101011000 11010100001010110001011010101000
11000111101001101111011010001111 01010000101101101011111110100001 01010000101101101011111101110111
10100111000011001110101001001110 01010110011010001011011110101100 01010110011010001011011110101100
00111000100000110010011101110001 00001101111100010010000100011011 00111000100000110010011101110001
10000111111001001110011000001111 01010111100110110101010110101111 01010111100110110101010110101111
01011110100101000101101110111101 10011110101110011010101000111101 01011110100101000101101110111101
00110001010101110111100101100010 01101010111001001101001111010101 01101010111001001101001111010101
00000111111101111110001100001111 11011001011000100011100010110010 11011001011000100011100010110010
01000111000111011100101110001110 00111110110010010110100101111101 01000111000111011100101111110011
11100111100111011100101011001111 01000100110000000110011110001001 11100111100111011100101011001111
00110111001100011100100101101110 10000001011001110001001000000010 00110111001100011100100101101110
11101101010101001101101011011010 00110101110010011000111101101011 11101101010101001101101011011010
11011011101110100010000010110111 10000110011100011001000000001100 11011011101110100010000010110111
11111100100101101010010011111001 10001100111011101101000000011001 11111100100101101010010011111001
11001001101101100011110010010011 00000010111011100101110100000101 11001001101101100011110010010011
11001110000100110110111010011100 01101111001110010000010111011110 01101111001110010000010111011110
11111000011010100100100011110000 10011010101100001011000000110101 11111000011010100100100011110000
10000111111111100100100000001111 00010111001001001100100100101110 00010111001001001100100100101110
00101101100010110011001101011011 10111011100101011000110001110111 10111011100101011000110001110111
01011001000110001111110110110010 10011001001111100111100000110010 01011001000110001111110110110010
01011010001010101010011110110100 00000010011111111010100100000100 01011010001010101010011110110100
00100010100000000001100101000101 00111000011111100011000101110000 00111000011111100011000101110000
11010100011000110000110010101000 00100110000100111000001101001100 11010100011000110000110010101000
11111100001101101110011011111000 10100110011000111100110001001100 11111100001101101110011011111000
00011001110000111001010100110011 00100011001100110101011101000110 00100011001100110101011101011110
