core/tb_serial_send.vcd
$date
	Fri Oct 13 13:42:41 2023
$end
$version
	Icarus Verilog
$end
$timescale
	10ns
$end
$scope module tb_serial_send $end
$scope module dut $end
$var wire 1 ! clk $end
$var wire 8 " data_in [7:0] $end
$var wire 1 # rst $end
$var wire 1 $ wait_rst $end
$var wire 1 % we $end
$var wire 10 & n_wait_cnt [9:0] $end
$var wire 4 ' n_bit_cnt [3:0] $end
$var wire 1 ( data_out $end
$var wire 1 ) bit_clk $end
$var reg 1 * bit_rst $end
$var reg 1 + busy $end
$var reg 10 , data_reg [9:0] $end
$var reg 10 - n_data_reg [9:0] $end
$var integer 32 . n_state [31:0] $end
$var integer 32 / state [31:0] $end
$scope module bit_cnt $end
$var wire 1 ) clk $end
$var wire 1 0 reset $end
$var reg 4 1 q [3:0] $end
$upscope $end
$scope module wait_cnt $end
$var wire 1 ! clk $end
$var wire 1 2 reset $end
$var reg 10 3 q [9:0] $end
$upscope $end
$upscope $end
$upscope $end
$enddefinitions $end
#0
$dumpvars
b0 3
12
b0 1
10
b0 /
b0 .
b1111111111 -
b1111111111 ,
0+
0*
0)
1(
b0 '
b0 &
x%
0$
1#
bx "
1!
$end
#1
0!
#2
1!
#3
0!
#4
1!
#5
0!
#6
1!
#7
0!
#8
1!
#9
0!
#10
b1 &
b1 3
02
00
1!
b10011100 "
0#
#11
0!
#12
b10 &
b10 3
1!
#13
0!
#14
b11 &
b11 3
1!
#15
0!
#16
b100 &
b100 3
1!
#17
0!
#18
b101 &
b101 3
1!
#19
0!
#20
0(
1+
b110 &
b110 3
b1100111000 ,
b1 /
b1100111000 -
b1 .
1!
1%
#21
0!
#22
1+
b111 &
b111 3
1!
#23
0!
#24
1+
b1000 &
b1000 3
1!
#25
0!
#26
1+
b1001 &
b1001 3
1!
#27
0!
#28
1+
b1010 &
b1010 3
1!
#29
0!
#30
1+
b1011 &
b1011 3
1!
#31
0!
#32
1+
b1100 &
b1100 3
1!
#33
0!
#34
1+
b1101 &
b1101 3
1!
#35
0!
#36
1+
b1110 &
b1110 3
1!
#37
0!
#38
1+
b1111 &
b1111 3
1!
#39
0!
#40
1+
b10000 &
b10000 3
1!
#41
0!
#42
1+
b10001 &
b10001 3
1!
#43
0!
#44
1+
b10010 &
b10010 3
1!
#45
0!
#46
1+
b10011 &
b10011 3
1!
#47
0!
#48
1+
b10100 &
b10100 3
1!
#49
0!
#50
1+
b10101 &
b10101 3
1!
#51
0!
#52
1+
b10110 &
b10110 3
1!
#53
0!
#54
1+
b10111 &
b10111 3
1!
#55
0!
#56
1+
b11000 &
b11000 3
1!
#57
0!
#58
1+
b11001 &
b11001 3
1!
#59
0!
#60
1+
b11010 &
b11010 3
1!
#61
0!
#62
1+
b11011 &
b11011 3
1!
#63
0!
#64
1+
b11100 &
b11100 3
1!
#65
0!
#66
1+
b11101 &
b11101 3
1!
#67
0!
#68
1+
b11110 &
b11110 3
1!
#69
0!
#70
1+
b11111 &
b11111 3
1!
#71
0!
#72
1+
b100000 &
b100000 3
1!
#73
0!
#74
1+
b100001 &
b100001 3
1!
#75
0!
#76
1+
b100010 &
b100010 3
1!
#77
0!
#78
1+
b100011 &
b100011 3
1!
#79
0!
#80
1+
b100100 &
b100100 3
1!
#81
0!
#82
1+
b100101 &
b100101 3
1!
#83
0!
#84
1+
b100110 &
b100110 3
1!
#85
0!
#86
1+
b100111 &
b100111 3
1!
#87
0!
#88
1+
b101000 &
b101000 3
1!
#89
0!
#90
1+
b101001 &
b101001 3
1!
#91
0!
#92
1+
b101010 &
b101010 3
1!
#93
0!
#94
1+
b101011 &
b101011 3
1!
#95
0!
#96
1+
b101100 &
b101100 3
1!
#97
0!
#98
1+
b101101 &
b101101 3
1!
#99
0!
#100
1+
b101110 &
b101110 3
1!
#101
0!
#102
1+
b101111 &
b101111 3
1!
#103
0!
#104
1+
b110000 &
b110000 3
1!
#105
0!
#106
1+
b110001 &
b110001 3
1!
#107
0!
#108
1+
b110010 &
b110010 3
1!
#109
0!
#110
1+
b110011 &
b110011 3
1!
#111
0!
#112
1+
b110100 &
b110100 3
1!
#113
0!
#114
1+
b110101 &
b110101 3
1!
#115
0!
#116
1+
b110110 &
b110110 3
1!
#117
0!
#118
1+
b110111 &
b110111 3
1!
#119
0!
#120
1+
b111000 &
b111000 3
1!
#121
0!
#122
1+
b111001 &
b111001 3
1!
#123
0!
#124
1+
b111010 &
b111010 3
1!
#125
0!
#126
1+
b111011 &
b111011 3
1!
#127
0!
#128
1+
b111100 &
b111100 3
1!
#129
0!
#130
1+
b111101 &
b111101 3
1!
#131
0!
#132
1+
b111110 &
b111110 3
1!
#133
0!
#134
1+
b111111 &
b111111 3
1!
#135
0!
#136
1+
b1000000 &
b1000000 3
1!
#137
0!
#138
1+
b1000001 &
b1000001 3
1!
#139
0!
#140
1+
b1000010 &
b1000010 3
1!
#141
0!
#142
1+
b1000011 &
b1000011 3
1!
#143
0!
#144
1+
b1000100 &
b1000100 3
1!
#145
0!
#146
1+
b1000101 &
b1000101 3
1!
#147
0!
#148
1+
b1000110 &
b1000110 3
1!
#149
0!
#150
1+
b1000111 &
b1000111 3
1!
#151
0!
#152
1+
b1001000 &
b1001000 3
1!
#153
0!
#154
1+
b1001001 &
b1001001 3
1!
#155
0!
#156
1+
b1001010 &
b1001010 3
1!
#157
0!
#158
1+
b1001011 &
b1001011 3
1!
#159
0!
#160
1+
b1001100 &
b1001100 3
1!
#161
0!
#162
1+
b1001101 &
b1001101 3
1!
#163
0!
#164
1+
b1001110 &
b1001110 3
1!
#165
0!
#166
1+
b1001111 &
b1001111 3
1!
#167
0!
#168
1+
b1010000 &
b1010000 3
1!
#169
0!
#170
1+
b1010001 &
b1010001 3
1!
#171
0!
#172
1+
b1010010 &
b1010010 3
1!
#173
0!
#174
1+
b1010011 &
b1010011 3
1!
#175
0!
#176
1+
b1010100 &
b1010100 3
1!
#177
0!
#178
1+
b1010101 &
b1010101 3
1!
#179
0!
#180
1+
b1010110 &
b1010110 3
1!
#181
0!
#182
1+
b1010111 &
b1010111 3
1!
#183
0!
#184
1+
b1011000 &
b1011000 3
1!
#185
0!
#186
1+
b1011001 &
b1011001 3
1!
#187
0!
#188
1+
b1011010 &
b1011010 3
1!
#189
0!
#190
1+
b1011011 &
b1011011 3
1!
#191
0!
#192
1+
b1011100 &
b1011100 3
1!
#193
0!
#194
1+
b1011101 &
b1011101 3
1!
#195
0!
#196
1+
b1011110 &
b1011110 3
1!
#197
0!
#198
1+
b1011111 &
b1011111 3
1!
#199
0!
#200
1+
b1100000 &
b1100000 3
1!
#201
0!
#202
1+
b1100001 &
b1100001 3
1!
#203
0!
#204
1+
b1100010 &
b1100010 3
1!
#205
0!
#206
1+
b1100011 &
b1100011 3
1!
#207
0!
#208
1+
b1100100 &
b1100100 3
1!
#209
0!
#210
1+
b1100101 &
b1100101 3
1!
#211
0!
#212
1+
b1100110 &
b1100110 3
1!
#213
0!
#214
1+
b1100111 &
b1100111 3
1!
#215
0!
#216
1+
b1101000 &
b1101000 3
1!
#217
0!
#218
1+
b1101001 &
b1101001 3
1!
#219
0!
#220
1+
b1101010 &
b1101010 3
1!
#221
0!
#222
1+
b1101011 &
b1101011 3
1!
#223
0!
#224
1+
b1101100 &
b1101100 3
1!
#225
0!
#226
1+
b1101101 &
b1101101 3
1!
#227
0!
#228
1+
b1101110 &
b1101110 3
1!
#229
0!
#230
1+
b1101111 &
b1101111 3
1!
#231
0!
#232
1+
b1110000 &
b1110000 3
1!
#233
0!
#234
1+
b1110001 &
b1110001 3
1!
#235
0!
#236
1+
b1110010 &
b1110010 3
1!
#237
0!
#238
1+
b1110011 &
b1110011 3
1!
#239
0!
#240
1+
b1110100 &
b1110100 3
1!
#241
0!
#242
1+
b1110101 &
b1110101 3
1!
#243
0!
#244
1+
b1110110 &
b1110110 3
1!
#245
0!
#246
1+
b1110111 &
b1110111 3
1!
#247
0!
#248
1+
b1111000 &
b1111000 3
1!
#249
0!
#250
1+
b1111001 &
b1111001 3
1!
#251
0!
#252
1+
b1111010 &
b1111010 3
1!
#253
0!
#254
1+
b1111011 &
b1111011 3
1!
#255
0!
#256
1+
b1111100 &
b1111100 3
1!
#257
0!
#258
1+
b1111101 &
b1111101 3
1!
#259
0!
#260
1+
b1111110 &
b1111110 3
1!
#261
0!
#262
1+
b1111111 &
b1111111 3
1!
#263
0!
#264
1+
b10000000 &
b10000000 3
1!
#265
0!
#266
1+
b10000001 &
b10000001 3
1!
#267
0!
#268
1+
b10000010 &
b10000010 3
1!
#269
0!
#270
1+
b10000011 &
b10000011 3
1!
#271
0!
#272
1+
b10000100 &
b10000100 3
1!
#273
0!
#274
1+
b10000101 &
b10000101 3
1!
#275
0!
#276
1+
b10000110 &
b10000110 3
1!
#277
0!
#278
1+
b10000111 &
b10000111 3
1!
#279
0!
#280
1+
b10001000 &
b10001000 3
1!
#281
0!
#282
1+
b10001001 &
b10001001 3
1!
#283
0!
#284
1+
b10001010 &
b10001010 3
1!
#285
0!
#286
1+
b10001011 &
b10001011 3
1!
#287
0!
#288
1+
b10001100 &
b10001100 3
1!
#289
0!
#290
1+
b10001101 &
b10001101 3
1!
#291
0!
#292
1+
b10001110 &
b10001110 3
1!
#293
0!
#294
1+
b10001111 &
b10001111 3
1!
#295
0!
#296
1+
b10010000 &
b10010000 3
1!
#297
0!
#298
1+
b10010001 &
b10010001 3
1!
#299
0!
#300
1+
b10010010 &
b10010010 3
1!
#301
0!
#302
1+
b10010011 &
b10010011 3
1!
#303
0!
#304
1+
b10010100 &
b10010100 3
1!
#305
0!
#306
1+
b10010101 &
b10010101 3
1!
#307
0!
#308
1+
b10010110 &
b10010110 3
1!
#309
0!
#310
1+
b10010111 &
b10010111 3
1!
#311
0!
#312
1+
b10011000 &
b10011000 3
1!
#313
0!
#314
1+
b10011001 &
b10011001 3
1!
#315
0!
#316
1+
b10011010 &
b10011010 3
1!
#317
0!
#318
1+
b10011011 &
b10011011 3
1!
#319
0!
#320
1+
b10011100 &
b10011100 3
1!
#321
0!
#322
1+
b10011101 &
b10011101 3
1!
#323
0!
#324
1+
b10011110 &
b10011110 3
1!
#325
0!
#326
1+
b10011111 &
b10011111 3
1!
#327
0!
#328
1+
b10100000 &
b10100000 3
1!
#329
0!
#330
1+
b10100001 &
b10100001 3
1!
#331
0!
#332
1+
b10100010 &
b10100010 3
1!
#333
0!
#334
1+
b10100011 &
b10100011 3
1!
#335
0!
#336
1+
b10100100 &
b10100100 3
1!
#337
0!
#338
1+
b10100101 &
b10100101 3
1!
#339
0!
#340
1+
b10100110 &
b10100110 3
1!
#341
0!
#342
1+
b10100111 &
b10100111 3
1!
#343
0!
#344
1+
b10101000 &
b10101000 3
1!
#345
0!
#346
1+
b10101001 &
b10101001 3
1!
#347
0!
#348
1+
b10101010 &
b10101010 3
1!
#349
0!
#350
1+
b10101011 &
b10101011 3
1!
#351
0!
#352
1+
b10101100 &
b10101100 3
1!
#353
0!
#354
1+
b10101101 &
b10101101 3
1!
#355
0!
#356
1+
b10101110 &
b10101110 3
1!
#357
0!
#358
1+
b10101111 &
b10101111 3
1!
#359
0!
#360
1+
b10110000 &
b10110000 3
1!
#361
0!
#362
1+
b10110001 &
b10110001 3
1!
#363
0!
#364
1+
b10110010 &
b10110010 3
1!
#365
0!
#366
1+
b10110011 &
b10110011 3
1!
#367
0!
#368
1+
b10110100 &
b10110100 3
1!
#369
0!
#370
1+
b10110101 &
b10110101 3
1!
#371
0!
#372
1+
b10110110 &
b10110110 3
1!
#373
0!
#374
1+
b10110111 &
b10110111 3
1!
#375
0!
#376
1+
b10111000 &
b10111000 3
1!
#377
0!
#378
1+
b10111001 &
b10111001 3
1!
#379
0!
#380
1+
b10111010 &
b10111010 3
1!
#381
0!
#382
1+
b10111011 &
b10111011 3
1!
#383
0!
#384
1+
b10111100 &
b10111100 3
1!
#385
0!
#386
1+
b10111101 &
b10111101 3
1!
#387
0!
#388
1+
b10111110 &
b10111110 3
1!
#389
0!
#390
1+
b10111111 &
b10111111 3
1!
#391
0!
#392
1+
b11000000 &
b11000000 3
1!
#393
0!
#394
1+
b11000001 &
b11000001 3
1!
#395
0!
#396
1+
b11000010 &
b11000010 3
1!
#397
0!
#398
1+
b11000011 &
b11000011 3
1!
#399
0!
#400
1+
b11000100 &
b11000100 3
1!
#401
0!
#402
1+
b11000101 &
b11000101 3
1!
#403
0!
#404
1+
b11000110 &
b11000110 3
1!
#405
0!
#406
1+
b11000111 &
b11000111 3
1!
#407
0!
#408
1+
b11001000 &
b11001000 3
1!
#409
0!
#410
1+
b11001001 &
b11001001 3
1!
#411
0!
#412
1+
b11001010 &
b11001010 3
1!
#413
0!
#414
1+
b11001011 &
b11001011 3
1!
#415
0!
#416
1+
b11001100 &
b11001100 3
1!
#417
0!
#418
1+
b11001101 &
b11001101 3
1!
#419
0!
#420
1+
b11001110 &
b11001110 3
1!
#421
0!
#422
1+
b11001111 &
b11001111 3
1!
#423
0!
#424
1+
b11010000 &
b11010000 3
1!
#425
0!
#426
1+
b11010001 &
b11010001 3
1!
#427
0!
#428
1+
b11010010 &
b11010010 3
1!
#429
0!
#430
1+
b11010011 &
b11010011 3
1!
#431
0!
#432
1+
b11010100 &
b11010100 3
1!
#433
0!
#434
1+
b11010101 &
b11010101 3
1!
#435
0!
#436
1+
b11010110 &
b11010110 3
1!
#437
0!
#438
1+
b11010111 &
b11010111 3
1!
#439
0!
#440
1+
b11011000 &
b11011000 3
1!
#441
0!
#442
1+
b11011001 &
b11011001 3
1!
#443
0!
#444
1+
b11011010 &
b11011010 3
1!
#445
0!
#446
1+
b11011011 &
b11011011 3
1!
#447
0!
#448
1+
b11011100 &
b11011100 3
1!
#449
0!
#450
1+
b11011101 &
b11011101 3
1!
#451
0!
#452
1+
b11011110 &
b11011110 3
1!
#453
0!
#454
1+
b11011111 &
b11011111 3
1!
#455
0!
#456
1+
b11100000 &
b11100000 3
1!
#457
0!
#458
1+
b11100001 &
b11100001 3
1!
#459
0!
#460
1+
b11100010 &
b11100010 3
1!
#461
0!
#462
1+
b11100011 &
b11100011 3
1!
#463
0!
#464
1+
b11100100 &
b11100100 3
1!
#465
0!
#466
1+
b11100101 &
b11100101 3
1!
#467
0!
#468
1+
b11100110 &
b11100110 3
1!
#469
0!
#470
1+
b11100111 &
b11100111 3
1!
#471
0!
#472
1+
b11101000 &
b11101000 3
1!
#473
0!
#474
1+
b11101001 &
b11101001 3
1!
#475
0!
#476
1+
b11101010 &
b11101010 3
1!
#477
0!
#478
1+
b11101011 &
b11101011 3
1!
#479
0!
#480
1+
b11101100 &
b11101100 3
1!
#481
0!
#482
1+
b11101101 &
b11101101 3
1!
#483
0!
#484
1+
b11101110 &
b11101110 3
1!
#485
0!
#486
1+
b11101111 &
b11101111 3
1!
#487
0!
#488
1+
b11110000 &
b11110000 3
1!
#489
0!
#490
1+
b11110001 &
b11110001 3
1!
#491
0!
#492
1+
b11110010 &
b11110010 3
1!
#493
0!
#494
1+
b11110011 &
b11110011 3
1!
#495
0!
#496
1+
b11110100 &
b11110100 3
1!
#497
0!
#498
1+
b11110101 &
b11110101 3
1!
#499
0!
#500
1+
b11110110 &
b11110110 3
1!
#501
0!
#502
1+
b11110111 &
b11110111 3
1!
#503
0!
#504
1+
b11111000 &
b11111000 3
1!
#505
0!
#506
1+
b11111001 &
b11111001 3
1!
#507
0!
#508
1+
b11111010 &
b11111010 3
1!
#509
0!
#510
1+
b11111011 &
b11111011 3
1!
#511
0!
#512
1+
b11111100 &
b11111100 3
1!
#513
0!
#514
1+
b11111101 &
b11111101 3
1!
#515
0!
#516
1+
b11111110 &
b11111110 3
1!
#517
0!
#518
1+
b11111111 &
b11111111 3
1!
#519
0!
#520
1+
b100000000 &
b100000000 3
1!
#521
0!
#522
1+
b100000001 &
b100000001 3
1!
#523
0!
#524
1+
b100000010 &
b100000010 3
1!
#525
0!
#526
1+
b100000011 &
b100000011 3
1!
#527
0!
#528
1+
b100000100 &
b100000100 3
1!
#529
0!
#530
1+
b100000101 &
b100000101 3
1!
#531
0!
#532
1+
b100000110 &
b100000110 3
1!
#533
0!
#534
1+
b100000111 &
b100000111 3
1!
#535
0!
#536
1+
b100001000 &
b100001000 3
1!
#537
0!
#538
1+
b100001001 &
b100001001 3
1!
#539
0!
#540
1+
b100001010 &
b100001010 3
1!
#541
0!
#542
1+
b100001011 &
b100001011 3
1!
#543
0!
#544
1+
b100001100 &
b100001100 3
1!
#545
0!
#546
1+
b100001101 &
b100001101 3
1!
#547
0!
#548
1+
b100001110 &
b100001110 3
1!
#549
0!
#550
1+
b100001111 &
b100001111 3
1!
#551
0!
#552
1+
b100010000 &
b100010000 3
1!
#553
0!
#554
1+
b100010001 &
b100010001 3
1!
#555
0!
#556
1+
b100010010 &
b100010010 3
1!
#557
0!
#558
1+
b100010011 &
b100010011 3
1!
#559
0!
#560
1+
b100010100 &
b100010100 3
1!
#561
0!
#562
1+
b100010101 &
b100010101 3
1!
#563
0!
#564
1+
b100010110 &
b100010110 3
1!
#565
0!
#566
1+
b100010111 &
b100010111 3
1!
#567
0!
#568
1+
b100011000 &
b100011000 3
1!
#569
0!
#570
1+
b100011001 &
b100011001 3
1!
#571
0!
#572
1+
b100011010 &
b100011010 3
1!
#573
0!
#574
1+
b100011011 &
b100011011 3
1!
#575
0!
#576
1+
b100011100 &
b100011100 3
1!
#577
0!
#578
1+
b100011101 &
b100011101 3
1!
#579
0!
#580
1+
b100011110 &
b100011110 3
1!
#581
0!
#582
1+
b100011111 &
b100011111 3
1!
#583
0!
#584
1+
b100100000 &
b100100000 3
1!
#585
0!
#586
1+
b100100001 &
b100100001 3
1!
#587
0!
#588
1+
b100100010 &
b100100010 3
1!
#589
0!
#590
1+
b100100011 &
b100100011 3
1!
#591
0!
#592
1+
b100100100 &
b100100100 3
1!
#593
0!
#594
1+
b100100101 &
b100100101 3
1!
#595
0!
#596
1+
b100100110 &
b100100110 3
1!
#597
0!
#598
1+
b100100111 &
b100100111 3
1!
#599
0!
#600
1+
b100101000 &
b100101000 3
1!
#601
0!
#602
1+
b100101001 &
b100101001 3
1!
#603
0!
#604
1+
b100101010 &
b100101010 3
1!
#605
0!
#606
1+
b100101011 &
b100101011 3
1!
#607
0!
#608
1+
b100101100 &
b100101100 3
1!
#609
0!
#610
1+
b100101101 &
b100101101 3
1!
#611
0!
#612
1+
b100101110 &
b100101110 3
1!
#613
0!
#614
1+
b100101111 &
b100101111 3
1!
#615
0!
#616
1+
b100110000 &
b100110000 3
1!
#617
0!
#618
1+
b100110001 &
b100110001 3
1!
#619
0!
#620
1+
b100110010 &
b100110010 3
1!
#621
0!
#622
1+
b100110011 &
b100110011 3
1!
#623
0!
#624
1+
b100110100 &
b100110100 3
1!
#625
0!
#626
1+
b100110101 &
b100110101 3
1!
#627
0!
#628
1+
b100110110 &
b100110110 3
1!
#629
0!
#630
1+
b100110111 &
b100110111 3
1!
#631
0!
#632
1+
b100111000 &
b100111000 3
1!
#633
0!
#634
1+
b100111001 &
b100111001 3
1!
#635
0!
#636
1+
b100111010 &
b100111010 3
1!
#637
0!
#638
1+
b100111011 &
b100111011 3
1!
#639
0!
#640
1+
b100111100 &
b100111100 3
1!
#641
0!
#642
1+
b100111101 &
b100111101 3
1!
#643
0!
#644
1+
b100111110 &
b100111110 3
1!
#645
0!
#646
1+
b100111111 &
b100111111 3
1!
#647
0!
#648
1+
b101000000 &
b101000000 3
1!
#649
0!
#650
1+
b101000001 &
b101000001 3
1!
#651
0!
#652
1+
b101000010 &
b101000010 3
1!
#653
0!
#654
1+
b101000011 &
b101000011 3
1!
#655
0!
#656
1+
b101000100 &
b101000100 3
1!
#657
0!
#658
1+
b101000101 &
b101000101 3
1!
#659
0!
#660
1+
b101000110 &
b101000110 3
1!
#661
0!
#662
1+
b101000111 &
b101000111 3
1!
#663
0!
#664
1+
b101001000 &
b101001000 3
1!
#665
0!
#666
1+
b101001001 &
b101001001 3
1!
#667
0!
#668
1+
b101001010 &
b101001010 3
1!
#669
0!
#670
1+
b101001011 &
b101001011 3
1!
#671
0!
#672
1+
b101001100 &
b101001100 3
1!
#673
0!
#674
1+
b101001101 &
b101001101 3
1!
#675
0!
#676
1+
b101001110 &
b101001110 3
1!
#677
0!
#678
1+
b101001111 &
b101001111 3
1!
#679
0!
#680
1+
b101010000 &
b101010000 3
1!
#681
0!
#682
1+
b101010001 &
b101010001 3
1!
#683
0!
#684
1+
b101010010 &
b101010010 3
1!
#685
0!
#686
1+
b101010011 &
b101010011 3
1!
#687
0!
#688
1+
b101010100 &
b101010100 3
1!
#689
0!
#690
1+
b101010101 &
b101010101 3
1!
#691
0!
#692
1+
b101010110 &
b101010110 3
1!
#693
0!
#694
1+
b101010111 &
b101010111 3
1!
#695
0!
#696
1+
b101011000 &
b101011000 3
1!
#697
0!
#698
1+
b101011001 &
b101011001 3
1!
#699
0!
#700
1+
b101011010 &
b101011010 3
1!
#701
0!
#702
1+
b101011011 &
b101011011 3
1!
#703
0!
#704
1+
b101011100 &
b101011100 3
1!
#705
0!
#706
1+
b101011101 &
b101011101 3
1!
#707
0!
#708
1+
b101011110 &
b101011110 3
1!
#709
0!
#710
1+
b101011111 &
b101011111 3
1!
#711
0!
#712
1+
b101100000 &
b101100000 3
1!
#713
0!
#714
1+
b101100001 &
b101100001 3
1!
#715
0!
#716
1+
b101100010 &
b101100010 3
1!
#717
0!
#718
1+
b101100011 &
b101100011 3
1!
#719
0!
#720
1+
b101100100 &
b101100100 3
1!
#721
0!
#722
1+
b101100101 &
b101100101 3
1!
#723
0!
#724
1+
b101100110 &
b101100110 3
1!
#725
0!
#726
1+
b101100111 &
b101100111 3
1!
#727
0!
#728
1+
b101101000 &
b101101000 3
1!
#729
0!
#730
1+
b101101001 &
b101101001 3
1!
#731
0!
#732
1+
b101101010 &
b101101010 3
1!
#733
0!
#734
1+
b101101011 &
b101101011 3
1!
#735
0!
#736
1+
b101101100 &
b101101100 3
1!
#737
0!
#738
1+
b101101101 &
b101101101 3
1!
#739
0!
#740
1+
b101101110 &
b101101110 3
1!
#741
0!
#742
1+
b101101111 &
b101101111 3
1!
#743
0!
#744
1+
b101110000 &
b101110000 3
1!
#745
0!
#746
1+
b101110001 &
b101110001 3
1!
#747
0!
#748
1+
b101110010 &
b101110010 3
1!
#749
0!
#750
1+
b101110011 &
b101110011 3
1!
#751
0!
#752
1+
b101110100 &
b101110100 3
1!
#753
0!
#754
1+
b101110101 &
b101110101 3
1!
#755
0!
#756
1+
b101110110 &
b101110110 3
1!
#757
0!
#758
1+
b101110111 &
b101110111 3
1!
#759
0!
#760
1+
b101111000 &
b101111000 3
1!
#761
0!
#762
1+
b101111001 &
b101111001 3
1!
#763
0!
#764
1+
b101111010 &
b101111010 3
1!
#765
0!
#766
1+
b101111011 &
b101111011 3
1!
#767
0!
#768
1+
b101111100 &
b101111100 3
1!
#769
0!
#770
1+
b101111101 &
b101111101 3
1!
#771
0!
#772
1+
b101111110 &
b101111110 3
1!
#773
0!
#774
1+
b101111111 &
b101111111 3
1!
#775
0!
#776
1+
b110000000 &
b110000000 3
1!
#777
0!
#778
1+
b110000001 &
b110000001 3
1!
#779
0!
#780
1+
b110000010 &
b110000010 3
1!
#781
0!
#782
1+
b110000011 &
b110000011 3
1!
#783
0!
#784
1+
b110000100 &
b110000100 3
1!
#785
0!
#786
1+
b110000101 &
b110000101 3
1!
#787
0!
#788
1+
b110000110 &
b110000110 3
1!
#789
0!
#790
1+
b110000111 &
b110000111 3
1!
#791
0!
#792
1+
b110001000 &
b110001000 3
1!
#793
0!
#794
1+
b110001001 &
b110001001 3
1!
#795
0!
#796
1+
b110001010 &
b110001010 3
1!
#797
0!
#798
1+
b110001011 &
b110001011 3
1!
#799
0!
#800
1+
b110001100 &
b110001100 3
1!
#801
0!
#802
1+
b110001101 &
b110001101 3
1!
#803
0!
#804
1+
b110001110 &
b110001110 3
1!
#805
0!
#806
1+
b110001111 &
b110001111 3
1!
#807
0!
#808
1+
b110010000 &
b110010000 3
1!
#809
0!
#810
1+
b110010001 &
b110010001 3
1!
#811
0!
#812
1+
b110010010 &
b110010010 3
1!
#813
0!
#814
1+
b110010011 &
b110010011 3
1!
#815
0!
#816
1+
b110010100 &
b110010100 3
1!
#817
0!
#818
1+
b110010101 &
b110010101 3
1!
#819
0!
#820
1+
b110010110 &
b110010110 3
1!
#821
0!
#822
1+
b110010111 &
b110010111 3
1!
#823
0!
#824
1+
b110011000 &
b110011000 3
1!
#825
0!
#826
1+
b110011001 &
b110011001 3
1!
#827
0!
#828
1+
b110011010 &
b110011010 3
1!
#829
0!
#830
1+
b110011011 &
b110011011 3
1!
#831
0!
#832
1+
b110011100 &
b110011100 3
1!
#833
0!
#834
1+
b110011101 &
b110011101 3
1!
#835
0!
#836
1+
b110011110 &
b110011110 3
1!
#837
0!
#838
1+
b110011111 &
b110011111 3
1!
#839
0!
#840
1+
b110100000 &
b110100000 3
1!
#841
0!
#842
1+
b110100001 &
b110100001 3
1!
#843
0!
#844
1+
b110100010 &
b110100010 3
1!
#845
0!
#846
1+
b110100011 &
b110100011 3
1!
#847
0!
#848
1+
b110100100 &
b110100100 3
1!
#849
0!
#850
1+
b110100101 &
b110100101 3
1!
#851
0!
#852
1+
b110100110 &
b110100110 3
1!
#853
0!
#854
1+
b110100111 &
b110100111 3
1!
#855
0!
#856
1+
b110101000 &
b110101000 3
1!
#857
0!
#858
1+
b110101001 &
b110101001 3
1!
#859
0!
#860
1+
b110101010 &
b110101010 3
1!
#861
0!
#862
1+
b110101011 &
b110101011 3
1!
#863
0!
#864
1+
b110101100 &
b110101100 3
1!
#865
0!
#866
1+
b110101101 &
b110101101 3
1!
#867
0!
#868
1+
b110101110 &
b110101110 3
1!
#869
0!
#870
1+
b110101111 &
b110101111 3
1!
#871
0!
#872
1+
b110110000 &
b110110000 3
1!
#873
0!
#874
1+
b110110001 &
b110110001 3
1!
#875
0!
#876
1+
b110110010 &
b110110010 3
1!
#877
0!
#878
1+
b110110011 &
b110110011 3
1!
#879
0!
#880
1+
b110110100 &
b110110100 3
1!
#881
0!
#882
1+
b110110101 &
b110110101 3
1!
#883
0!
#884
1+
b110110110 &
b110110110 3
1!
#885
0!
#886
1+
b110110111 &
b110110111 3
1!
#887
0!
#888
1+
b110111000 &
b110111000 3
1!
#889
0!
#890
1+
b110111001 &
b110111001 3
1!
#891
0!
#892
1+
b110111010 &
b110111010 3
1!
#893
0!
#894
1+
b110111011 &
b110111011 3
1!
#895
0!
#896
1+
b110111100 &
b110111100 3
1!
#897
0!
#898
1+
b110111101 &
b110111101 3
1!
#899
0!
#900
1+
b110111110 &
b110111110 3
1!
#901
0!
#902
1+
b110111111 &
b110111111 3
1!
#903
0!
#904
1+
b111000000 &
b111000000 3
1!
#905
0!
#906
1+
b111000001 &
b111000001 3
1!
#907
0!
#908
1+
b111000010 &
b111000010 3
1!
#909
0!
#910
1+
b111000011 &
b111000011 3
1!
#911
0!
#912
1+
b111000100 &
b111000100 3
1!
#913
0!
#914
1+
b111000101 &
b111000101 3
1!
#915
0!
#916
1+
b111000110 &
b111000110 3
1!
#917
0!
#918
1+
b111000111 &
b111000111 3
1!
#919
0!
#920
1+
b111001000 &
b111001000 3
1!
#921
0!
#922
1+
b111001001 &
b111001001 3
1!
#923
0!
#924
1+
b111001010 &
b111001010 3
1!
#925
0!
#926
1+
b111001011 &
b111001011 3
1!
#927
0!
#928
1+
b111001100 &
b111001100 3
1!
#929
0!
#930
1+
b111001101 &
b111001101 3
1!
#931
0!
#932
1+
b111001110 &
b111001110 3
1!
#933
0!
#934
1+
b111001111 &
b111001111 3
1!
#935
0!
#936
1+
b111010000 &
b111010000 3
1!
#937
0!
#938
1+
b111010001 &
b111010001 3
1!
#939
0!
#940
1+
b111010010 &
b111010010 3
1!
#941
0!
#942
1+
b111010011 &
b111010011 3
1!
#943
0!
#944
1+
b111010100 &
b111010100 3
1!
#945
0!
#946
1+
b111010101 &
b111010101 3
1!
#947
0!
#948
1+
b111010110 &
b111010110 3
1!
#949
0!
#950
1+
b111010111 &
b111010111 3
1!
#951
0!
#952
1+
b111011000 &
b111011000 3
1!
#953
0!
#954
1+
b111011001 &
b111011001 3
1!
#955
0!
#956
1+
b111011010 &
b111011010 3
1!
#957
0!
#958
1+
b111011011 &
b111011011 3
1!
#959
0!
#960
1+
b111011100 &
b111011100 3
1!
#961
0!
#962
1+
b111011101 &
b111011101 3
1!
#963
0!
#964
1+
b111011110 &
b111011110 3
1!
#965
0!
#966
1+
b111011111 &
b111011111 3
1!
#967
0!
#968
1+
b111100000 &
b111100000 3
1!
#969
0!
#970
1+
b111100001 &
b111100001 3
1!
#971
0!
#972
1+
b111100010 &
b111100010 3
1!
#973
0!
#974
1+
b111100011 &
b111100011 3
1!
#975
0!
#976
1+
b111100100 &
b111100100 3
1!
#977
0!
#978
1+
b111100101 &
b111100101 3
1!
#979
0!
#980
1+
b111100110 &
b111100110 3
1!
#981
0!
#982
1+
b111100111 &
b111100111 3
1!
#983
0!
#984
1+
b111101000 &
b111101000 3
1!
#985
0!
#986
1+
b111101001 &
b111101001 3
1!
#987
0!
#988
1+
b111101010 &
b111101010 3
1!
#989
0!
#990
1+
b111101011 &
b111101011 3
1!
#991
0!
#992
1+
b111101100 &
b111101100 3
1!
#993
0!
#994
1+
b111101101 &
b111101101 3
1!
#995
0!
#996
1+
b111101110 &
b111101110 3
1!
#997
0!
#998
1+
b111101111 &
b111101111 3
1!
#999
0!
#1000
1+
b111110000 &
b111110000 3
1!
#1001
0!
#1002
1+
b111110001 &
b111110001 3
1!
#1003
0!
#1004
1+
b111110010 &
b111110010 3
1!
#1005
0!
